Chapter 4 日本でのデータサイエンス教育の課題にどう向き合うか | データ・サイエンス教育
…
Brexit の国民投票の事前調査と実際のデータ

2016 年の大統領選挙の事前調査と結果のデータ

UC Berkeley の大学院入試における男女差

オランダにおける研究費獲得率に関する男女差

プロ野球の新人の打率予測

library(tidyverse)
library(dslabs)
list_dslabs <- data(package='dslabs')
list_dslabs$results %>% as_tibble() %>% select(3:4)
#> # A tibble: 29 × 2
#>    Item              Title                                  
#>    <chr>             <chr>                                  
#>  1 admissions        Gender bias among graduate school admi…
#>  2 brca              Breast Cancer Wisconsin Diagnostic Dat…
#>  3 brexit_polls      Brexit Poll Data                       
#>  4 death_prob        2015 US Period Life Table              
#>  5 divorce_margarine Divorce rate and margarine consumption…
#>  6 gapminder         Gapminder Data                         
#>  7 greenhouse_gases  Greenhouse gas concentrations over 200…
#>  8 heights           Self-Reported Heights                  
#>  9 historic_co2      Atmospheric carbon dioxide concentrati…
#> 10 mnist_27          Useful example for illustrating machin…
#> # … with 19 more rows
…
